{
  "id": "uiconfig",
  "applications": [],
  "environments": [
    {
      "id": "development",
      "session": {
        "cache": "LocalStorage"
      },
      "locales": [
        {
          "id": "en",
          "name": "English"
        }
      ],
      "site": {
        "renderLogo": false,
        "hideNavigation": true
      },
      "connection": {
        "cache": false
      },
      "c3Tools": true,
      "acl": false
    }
  ]
}